<svg width="48" height="48" viewBox="0 0 48 48" version="1.1" xmlns="http://www.w3.org/2000/svg" xmlns:xlink="http://www.w3.org/1999/xlink">
<title>icons</title>
<desc>Created using Figma</desc>
<g id="Canvas" transform="translate(484 -24976)">
<g id="icons">
<g id="graph2">
<g id="graph2">
<use xlink:href="#path0_fill" transform="translate(-484 24976)" fill="#E77A12"/>
</g>
</g>
</g>
</g>
<defs>
<path id="path0_fill" fill-rule="evenodd" d="M 47.9 26L 39.84 26C 39.9 26.664 40 27.318 40 28C 40 39.0457 31.0457 48 20 48C 8.9543 48 0 39.0457 0 28C 0 16.9543 8.9543 8 20 8C 20.6691 8.02136 21.3367 8.07744 22 8.168L 22 0.1C 22.66 0.046 23.32 0 24 0C 37.2548 0 48 10.7452 48 24C 48 24.676 47.96 25.338 47.9 26ZM 22 12.1377C 15.3967 11.3058 8.96803 14.6484 5.85638 20.5317C 2.74472 26.4149 3.59999 33.6101 8.00412 38.5999C 12.4082 43.5898 19.4414 45.3323 25.6656 42.9755C 31.8898 40.6188 36.0052 34.6552 36 27.9997C 35.9939 27.3308 35.9472 26.6629 35.86 25.9997L 24 25.9997C 22.8954 25.9997 22 25.1043 22 23.9997L 22 12.1377ZM 46 21.9998L 43.46 19.4638C 41.5139 11.1546 34.4933 5.00663 26 4.17383L 26 21.9998L 43.88 21.9998C 43.7915 21.1468 43.6513 20.2999 43.46 19.4638L 46 21.9998Z"/>
</defs>
</svg>
