<svg width="24" height="22" viewBox="0 0 24 22" version="1.1" xmlns="http://www.w3.org/2000/svg" xmlns:xlink="http://www.w3.org/1999/xlink">
<title>wallet</title>
<desc>Created using Figma</desc>
<g id="Canvas" transform="translate(-5968 -26094)">
<g id="wallet">
<g id="wallet">
<use xlink:href="#path0_fill" transform="translate(5968 26094)" fill="#E77A12"/>
</g>
</g>
</g>
<defs>
<path id="path0_fill" fill-rule="evenodd" d="M 22 22L 2 22C 0.89543 22 0 21.1046 0 20L 0 2C 0 0.89543 0.89543 0 2 0L 18 0C 19.1046 0 20 0.89543 20 2L 20 4L 22 4C 23.1046 4 24 4.89543 24 6L 24 20C 24 21.1046 23.1046 22 22 22ZM 18 2L 2 2L 2 4L 18 4L 18 2ZM 22 6L 2 6L 2 20L 22 20L 22 6ZM 17 10C 18.6569 10 20 11.3431 20 13C 20 14.6569 18.6569 16 17 16C 15.3431 16 14 14.6569 14 13C 14 11.3431 15.3431 10 17 10ZM 17 14C 17.5523 14 18 13.5523 18 13C 18 12.4477 17.5523 12 17 12C 16.4477 12 16 12.4477 16 13C 16 13.5523 16.4477 14 17 14Z"/>
</defs>
</svg>
