<svg width="80" height="80" viewBox="0 0 80 80" version="1.1" xmlns="http://www.w3.org/2000/svg" xmlns:xlink="http://www.w3.org/1999/xlink">
<title>shop-script_logo</title>
<desc>Created using Figma</desc>
<g id="Canvas" transform="translate(-325 -561)">
<g id="shop-script_logo">
<g id="Vector">
<use xlink:href="#path0_fill" transform="translate(325 561)" fill="#5CAF2A"/>
</g>
<g id="Group">
<g id="Vector">
<use xlink:href="#path1_fill" transform="translate(349.141 575.097)" fill="#FFFFFF"/>
</g>
<g id="Vector">
<use xlink:href="#path2_fill" transform="translate(367.532 623.459)" fill="#FFFFFF"/>
</g>
<g id="Vector">
<use xlink:href="#path3_fill" transform="translate(356.017 623.839)" fill="#FFFFFF"/>
</g>
</g>
</g>
</g>
<defs>
<path id="path0_fill" d="M 40 80C 62.0914 80 80 62.0914 80 40C 80 17.9086 62.0914 0 40 0C 17.9086 0 0 17.9086 0 40C 0 62.0914 17.9086 80 40 80Z"/>
<path id="path1_fill" d="M 21.0293 22.1729C 12.4993 20.4729 10.7893 19.5829 10.8893 16.9029C 10.9893 14.2229 13.9693 13.5529 13.9693 13.5529C 13.9693 13.5529 18.3993 12.6729 21.4493 15.4529C 21.4493 15.4529 22.3293 16.5029 23.1793 15.7029C 23.2193 15.6729 27.7993 9.72288 27.7993 9.72288C 27.7993 9.72288 28.4193 8.97288 27.2993 8.14288C 27.2993 8.14288 23.7993 5.76288 22.7393 5.50288L 22.7393 1.06288C 22.7393 1.06288 22.7893 0.522878 22.3393 0.402878C 21.8893 0.282878 20.9093 1.34288 20.9093 1.34288L 17.9493 4.33288L 13.5993 4.32288L 13.5993 0.752878C 13.5993 0.752878 13.6793 -0.297123 12.6293 0.0828766C 11.5793 0.462877 5.20929 7.56288 5.20929 7.56288C 5.20929 7.56288 -1.96071 14.5329 2.70929 23.5629C 2.70929 23.5629 4.90929 27.0929 8.20929 28.0329C 11.5093 28.9629 16.6393 29.6029 19.4793 31.2629C 22.3093 32.9329 20.6093 36.0929 20.6093 36.0929C 20.6093 36.0929 18.0793 39.7929 11.1093 37.7229C 11.1093 37.7229 7.55929 36.4929 5.95929 34.8929C 5.95929 34.8929 5.08929 34.2729 4.25929 35.6429L 0.259287 40.9329C 0.259287 40.9329 -0.570714 41.9129 0.739286 42.7629C 0.739286 42.7629 6.77929 47.1929 14.1593 47.3729C 21.5393 47.5529 28.4293 44.1929 30.4293 37.7929C 32.4293 31.3929 29.5593 23.8729 21.0293 22.1729Z"/>
<path id="path2_fill" d="M 5.50836 0.0907851C 5.50836 0.0907851 2.92836 0.980783 1.21836 1.10078C -0.49164 1.22078 0.0983592 2.14079 0.0983592 2.14079C 0.0983592 2.14079 0.798362 3.65078 1.23836 4.75078C 1.67836 5.85078 2.33836 5.13079 2.33836 5.13079L 6.16836 0.770784C 6.43836 0.460784 6.29837 0.190785 6.29837 0.190785C 6.04837 -0.169215 5.50836 0.0907851 5.50836 0.0907851Z"/>
<path id="path3_fill" d="M 5.29299 1.10089C 4.58299 0.860895 1.79299 0.500891 0.812991 0.0908912C -0.167009 -0.319109 0.0129905 0.790891 0.0129905 0.790891L 0.392989 4.47089C 0.392989 4.47089 0.472994 5.33089 1.22299 4.81089L 5.20299 2.01089C 5.19299 2.00089 6.01299 1.34089 5.29299 1.10089Z"/>
</defs>
</svg>
