<svg width="191" height="70" viewBox="0 0 191 70" version="1.1" xmlns="http://www.w3.org/2000/svg" xmlns:xlink="http://www.w3.org/1999/xlink">
<title>logo_color</title>
<desc>Created using Figma</desc>
<g id="Canvas" transform="translate(-160 -2617)">
<g id="logo_color">
<g id="Group">
<g id="Vector">
<use xlink:href="#path0_fill" transform="translate(181.211 2617)" fill="#C52026"/>
</g>
</g>
<g id="Group">
<g id="Vector">
<use xlink:href="#path1_fill" transform="translate(160 2617)"/>
</g>
</g>
<g id="Group">
<g id="Vector">
<use xlink:href="#path2_fill" transform="translate(245.038 2630.18)"/>
</g>
<g id="Vector">
<use xlink:href="#path3_fill" transform="translate(263.947 2630.18)"/>
</g>
<g id="Vector">
<use xlink:href="#path4_fill" transform="translate(286.431 2621.56)"/>
</g>
<g id="Vector">
<use xlink:href="#path5_fill" transform="translate(308.915 2630.18)"/>
</g>
<g id="Vector">
<use xlink:href="#path6_fill" transform="translate(330.763 2630.18)"/>
</g>
</g>
<g id="Group">
<g id="Vector">
<use xlink:href="#path7_fill" transform="translate(244.891 2665.84)" fill="#C52026"/>
</g>
<g id="Vector">
<use xlink:href="#path8_fill" transform="translate(255.521 2665.79)" fill="#C52026"/>
</g>
<g id="Vector">
<use xlink:href="#path9_fill" transform="translate(263.702 2665.79)" fill="#C52026"/>
</g>
<g id="Vector">
<use xlink:href="#path10_fill" transform="translate(272.813 2665.74)" fill="#C52026"/>
</g>
<g id="Vector">
<use xlink:href="#path11_fill" transform="translate(283.394 2665.79)" fill="#C52026"/>
</g>
<g id="Vector">
<use xlink:href="#path12_fill" transform="translate(295.395 2665.84)" fill="#C52026"/>
</g>
<g id="Vector">
<use xlink:href="#path13_fill" transform="translate(306.123 2665.79)" fill="#C52026"/>
</g>
<g id="Vector">
<use xlink:href="#path14_fill" transform="translate(311.952 2665.84)" fill="#C52026"/>
</g>
<g id="Vector">
<use xlink:href="#path15_fill" transform="translate(322.043 2665.64)" fill="#C52026"/>
</g>
<g id="Vector">
<use xlink:href="#path16_fill" transform="translate(331.448 2665.79)" fill="#C52026"/>
</g>
<g id="Vector">
<use xlink:href="#path17_fill" transform="translate(341.931 2665.79)" fill="#C52026"/>
</g>
</g>
<g id="Group">
<g id="Vector">
<use xlink:href="#path18_fill" transform="translate(244.892 2658.2)" fill="#C52026"/>
</g>
</g>
</g>
</g>
<defs>
<path id="path0_fill" d="M 49.1323 27.2848L 39.0413 21.4556L 39.0413 8.37649L 24.5906 0L 10.091 8.37649L 10.091 21.4556L -2.98983e-06 27.2848L -2.98983e-06 46.4381L 3.37998 48.4465L 6.80895 46.4381L 6.80895 31.3506L 16.9489 25.5213L 16.9489 12.4423L 24.5906 8.03359L 32.1833 12.4423L 32.1833 25.5213L 42.2743 31.3506L 42.2743 40.1679L 32.1833 45.9482L 32.1833 57.8517L 24.5906 62.2603L 24.5906 70L 39.0413 61.6725L 39.0413 49.8181L 49.1323 43.9888L 49.1323 27.2848Z"/>
<path id="path1_fill" d="M 2.98983e-06 42.7642L 10.091 48.5444L 10.091 61.6725L 24.5906 70L 39.0413 61.6725L 39.0413 48.5934L 49.1813 42.7642L 49.1813 23.5619L 45.7523 21.6025L 42.3233 23.5619L 42.3233 38.6494L 32.1833 44.4787L 32.2323 57.5577L 24.5906 61.9664L 16.9489 57.5577L 16.9489 44.4787L 6.85795 38.6494L 6.85795 29.832L 16.9489 24.0518L 16.9489 12.1973L 24.5906 7.78866L 24.5906 0L 10.091 8.37649L 10.091 20.2309L 2.98983e-06 26.0112L 2.98983e-06 42.7642Z"/>
<path id="path2_fill" d="M 5.97965e-06 21.6025L 5.97965e-06 7.47457e-07L 18.3205 7.47457e-07L 18.3205 4.31071L 4.31071 4.31071L 4.31071 21.6025L 5.97965e-06 21.6025Z"/>
<path id="path3_fill" d="M -5.97965e-06 21.6025L -5.97965e-06 6.51504L 6.46606 7.47457e-07L 19.3982 7.47457e-07L 19.3982 21.6025L 15.0875 21.6025L 15.0875 15.1365L 4.31071 15.1365L 4.31071 21.6025L -5.97965e-06 21.6025ZM 15.0875 10.8258L 15.0875 4.31071L 8.62141 4.31071L 4.31071 8.6704L 4.31071 10.8258L 15.0875 10.8258Z"/>
<path id="path4_fill" d="M 5.97965e-06 30.2239L 5.97965e-06 8.62142L 4.31071 8.62142L 4.31071 23.0231L 15.0875 8.62142L 19.3982 8.62142L 19.3982 30.2239L 15.0875 30.2239L 15.0875 15.8223L 4.31071 30.2239L 5.97965e-06 30.2239ZM 2.10637 1.49491e-06L 6.41707 1.49491e-06L 6.41707 2.79216L 12.8831 2.79216L 12.8831 1.49491e-06L 17.1938 1.49491e-06L 17.1938 4.31071L 15.0385 6.46606L 4.26172 6.46606L 2.05738 4.31071L 2.05738 1.49491e-06L 2.10637 1.49491e-06Z"/>
<path id="path5_fill" d="M -1.19593e-05 21.6025L -1.19593e-05 7.47457e-07L 4.31072 7.47457e-07L 4.31072 8.6704L 10.7768 8.6704L 15.0875 4.35969L 15.0875 7.47457e-07L 19.3982 7.47457e-07L 19.3982 6.51504L 15.0875 10.8258L 19.3982 15.1365L 19.3982 21.6025L 15.0875 21.6025L 15.0875 17.2918L 10.7768 12.9811L 4.31072 12.9811L 4.31072 21.6025L -1.19593e-05 21.6025Z"/>
<path id="path6_fill" d="M 5.97965e-06 21.6025L 5.97965e-06 6.51504L 6.46607 7.47457e-07L 19.3982 7.47457e-07L 19.3982 21.6025L 15.0875 21.6025L 15.0875 15.1365L 4.31071 15.1365L 4.31071 21.6025L 5.97965e-06 21.6025ZM 15.0875 10.8258L 15.0875 4.31071L 8.62141 4.31071L 4.31071 8.6704L 4.31071 10.8258L 15.0875 10.8258Z"/>
<path id="path7_fill" d="M 6.75998 7.69069L 2.40027 7.69069L 1.42057 10.4339L -2.98983e-06 10.4339L 3.96781 -1.49491e-06L 5.19244 -1.49491e-06L 9.20924 10.4339L 7.78866 10.4339L 6.75998 7.69069ZM 2.79217 6.56403L 6.36809 6.56403L 4.60461 1.6655L 2.79217 6.56403Z"/>
<path id="path8_fill" d="M 2.98983e-06 10.4339L 2.98983e-06 2.98983e-06L 3.42897 2.98983e-06C 4.55564 2.98983e-06 5.43736 0.244927 5.9762 0.685794C 6.51504 1.12666 6.85795 1.86144 6.85795 2.74318C 6.85795 3.23303 6.71098 3.6739 6.46605 4.0168C 6.22113 4.35969 5.82925 4.70259 5.3394 4.89853C 5.92722 5.04549 6.3681 5.3394 6.66201 5.78026C 6.95592 6.22113 7.15186 6.75998 7.15186 7.3478C 7.15186 8.27852 6.85794 9.0133 6.22113 9.55214C 5.58432 10.091 4.75157 10.3359 3.62491 10.3359L 2.98983e-06 10.3359L 2.98983e-06 10.4339ZM 1.37159 4.45766L 3.42897 4.45766C 4.0168 4.45766 4.50665 4.31071 4.89853 4.0168C 5.24143 3.72288 5.43738 3.28202 5.43738 2.79216C 5.43738 2.20434 5.29042 1.81245 4.94752 1.51854C 4.60462 1.22463 4.11477 1.12666 3.42897 1.12666L 1.37159 1.12666L 1.37159 4.45766ZM 1.37159 5.58432L 1.37159 9.35619L 3.62491 9.35619C 4.26172 9.35619 4.75158 9.20924 5.14346 8.86634C 5.53534 8.52344 5.6823 8.08257 5.6823 7.49475C 5.6823 6.22113 4.9965 5.58432 3.62491 5.58432L 1.37159 5.58432Z"/>
<path id="path9_fill" d="M 8.08257 1.12666L 4.70259 1.12666L 4.70259 10.4339L 3.331 10.4339L 3.331 1.12666L -5.97965e-06 1.12666L -5.97965e-06 2.98983e-06L 8.08257 2.98983e-06L 8.08257 1.12666Z"/>
<path id="path10_fill" d="M 8.42548 5.63331C 8.42548 6.662 8.22953 7.54374 7.88663 8.3275C 7.54374 9.11127 7.05388 9.65011 6.41708 10.091C 5.78027 10.5318 5.04549 10.6788 4.21274 10.6788C 3.37999 10.6788 2.64521 10.4829 2.0084 10.091C 1.37159 9.69909 0.881736 9.11127 0.538838 8.37649C 0.195941 7.64171 -2.98983e-06 6.75997 -2.98983e-06 5.78027L -2.98983e-06 5.04549C -2.98983e-06 4.0168 0.195941 3.13506 0.538838 2.40028C 0.881736 1.6655 1.37159 1.02869 2.0084 0.63681C 2.64521 0.244928 3.37999 1.39225e-14 4.21274 1.39225e-14C 5.04549 1.39225e-14 5.78027 0.19594 6.41708 0.587822C 7.05388 0.979705 7.54374 1.56753 7.88663 2.3513C 8.22953 3.13506 8.42548 4.0168 8.42548 5.04549L 8.42548 5.63331ZM 7.05388 4.94752C 7.05388 3.72289 6.80895 2.74318 6.3191 2.10637C 5.82925 1.46956 5.14346 1.12666 4.21274 1.12666C 3.331 1.12666 2.6452 1.46956 2.15535 2.10637C 1.66549 2.79216 1.42058 3.6739 1.37159 4.84954L 1.37159 5.63331C 1.37159 6.85794 1.61652 7.78867 2.10637 8.47446C 2.59623 9.16025 3.28202 9.50315 4.21274 9.50315C 5.09447 9.50315 5.78027 9.16025 6.27013 8.52344C 6.75998 7.88663 7.00491 6.95591 7.00491 5.73128L 7.00491 4.94752L 7.05388 4.94752Z"/>
<path id="path11_fill" d="M 1.76347 2.98983e-06L 5.19245 8.52344L 8.62142 2.98983e-06L 10.3849 2.98983e-06L 10.3849 10.4339L 9.01329 10.4339L 9.01329 6.36809L 9.16026 1.95942L 5.73129 10.4339L 4.6536 10.4339L 1.22463 2.0084L 1.37158 6.36809L 1.37158 10.4339L 0 10.4339L 0 2.98983e-06L 1.76347 2.98983e-06Z"/>
<path id="path12_fill" d="M 6.80897 7.69069L 2.44927 7.69069L 1.46956 10.4339L 0 10.4339L 3.9678 -1.49491e-06L 5.19243 -1.49491e-06L 9.20923 10.4339L 7.78868 10.4339L 6.80897 7.69069ZM 2.84114 6.56403L 6.41706 6.56403L 4.6536 1.6655L 2.84114 6.56403Z"/>
<path id="path13_fill" d="M 6.41708 1.12666L 1.37159 1.12666L 1.37159 10.4339L 1.19593e-05 10.4339L 1.19593e-05 2.98983e-06L 6.41708 2.98983e-06L 6.41708 1.12666Z"/>
<path id="path14_fill" d="M 6.75996 7.69069L 2.40029 7.69069L 1.42058 10.4339L -5.97965e-06 10.4339L 3.96782 -1.49491e-06L 5.19245 -1.49491e-06L 9.20923 10.4339L 7.78867 10.4339L 6.75996 7.69069ZM 2.79216 6.56403L 6.36808 6.56403L 4.60462 1.6655L 2.79216 6.56403Z"/>
<path id="path15_fill" d="M 5.92722 2.93912C 5.92722 2.40028 5.73128 1.95942 5.33939 1.61652C 4.94751 1.27362 4.35969 1.12667 3.62491 1.12667C 2.9881 1.12667 2.49826 1.27362 2.10637 1.61652C 1.71449 1.95942 1.46957 2.35129 1.46957 2.89013L 0.0979587 2.89013C 0.0979587 2.35129 0.244927 1.86144 0.538838 1.42057C 0.83275 0.979705 1.27361 0.636812 1.81244 0.391885C 2.35128 0.146959 2.93911 1.49491e-06 3.62491 1.49491e-06C 4.80055 1.49491e-06 5.68231 0.244924 6.3681 0.783762C 7.00491 1.3226 7.34781 2.05738 7.34781 2.9881C 7.34781 3.47795 7.20084 3.91883 6.90693 4.31071C 6.61302 4.70259 6.17215 4.9965 5.6823 5.24143C 6.90693 5.63331 7.54373 6.46606 7.54373 7.69069C 7.54373 8.62141 7.20085 9.3562 6.51505 9.94402C 5.82926 10.4829 4.89853 10.7768 3.72288 10.7768C 3.03709 10.7768 2.40027 10.6298 1.81244 10.3849C 1.22462 10.14 0.783777 9.79706 0.489865 9.35619C 0.195953 8.91532 1.19593e-05 8.37649 1.19593e-05 7.73968L 1.37159 7.73968C 1.37159 8.27852 1.56753 8.76837 2.0084 9.11126C 2.44927 9.45416 2.98812 9.65011 3.67391 9.65011C 4.40869 9.65011 5.04548 9.45416 5.48634 9.11126C 5.92721 8.76837 6.17215 8.27852 6.17215 7.73968C 6.17215 6.51505 5.43738 5.87824 3.91884 5.87824L 2.6452 5.87824L 2.6452 4.75157L 3.91884 4.75157C 4.60463 4.75157 5.14345 4.55563 5.48634 4.26172C 5.82924 3.96781 5.92722 3.52694 5.92722 2.93912Z"/>
<path id="path16_fill" d="M 6.51506 2.98983e-06L 7.88664 2.98983e-06L 7.88664 10.4339L 6.51506 10.4339L 6.51506 2.40028L 1.3716 10.4339L -1.19593e-05 10.4339L -1.19593e-05 2.98983e-06L 1.3716 2.98983e-06L 1.3716 8.03359L 6.51506 2.98983e-06Z"/>
<path id="path17_fill" d="M 8.0336 10.4339L 6.66199 10.4339L 6.66199 5.58432L 1.37158 5.58432L 1.37158 10.4339L 0 10.4339L 0 2.98983e-06L 1.37158 2.98983e-06L 1.37158 4.50665L 6.66199 4.50665L 6.66199 2.98983e-06L 8.0336 2.98983e-06L 8.0336 10.4339Z"/>
<path id="path18_fill" d="M 105.122 2.98983e-06L -2.98983e-06 2.98983e-06L -2.98983e-06 0.342899L 105.122 0.342899L 105.122 2.98983e-06Z"/>
</defs>
</svg>
