<svg width="48" height="48" viewBox="0 0 48 48" version="1.1" xmlns="http://www.w3.org/2000/svg" xmlns:xlink="http://www.w3.org/1999/xlink">
<title>designer</title>
<desc>Created using Figma</desc>
<g id="Canvas" transform="translate(484 -10104)">
<g id="designer">
<g id="Vector (Stroke)">
<use xlink:href="#path0_fill" transform="translate(-484 10104)" fill="#E77A12"/>
</g>
<g id="Union">
<use xlink:href="#path1_fill" transform="translate(-476.639 10113.2)" fill="#E77A12"/>
</g>
</g>
</g>
<defs>
<path id="path0_fill" fill-rule="evenodd" d="M 23.8217 0.0131878C 27.9361 0.0235153 33.3344 1.56031 37.9521 4.44886C 42.5939 7.35249 46.7194 11.802 47.7396 17.7824C 49.3558 27.2563 43.0604 32.7788 39.5638 34.4206C 38.1973 35.1924 35.0423 36.0296 30.7141 35.3798C 28.924 35.1111 28.1048 35.8727 27.7565 36.5857C 27.2694 37.5828 27.6674 38.2164 27.7202 38.256C 30.2804 40.1778 29.7138 42.9728 29.1279 44.2417C 28.7633 45.5867 27.9283 46.5573 26.8512 47.1628C 25.7792 47.7655 24.5456 47.968 23.4241 47.998C 21.2701 48.039 18.7812 47.4396 17.269 46.8973C 9.62948 44.485 4.94948 40.0427 2.41624 34.9942C -0.0180365 30.0602 -0.401382 24.4272 0.336343 20.0956L 0.346417 20.0375L 0.360173 19.9801C 4.31585 3.48467 17.4948 -0.255432 23.8217 0.0131878ZM 3.96561 20.7881C 3.29022 24.6731 3.55893 29.1155 5.71756 33.335C 7.78443 37.454 11.6583 41.257 18.4131 43.3817L 18.4521 43.3939L 18.4905 43.4079C 19.8142 43.8924 21.6503 44.3638 23.3253 44.3021C 24.1281 44.2806 24.6933 44.1353 25.042 43.9393C 25.3222 43.7818 25.4957 43.5826 25.581 43.1984L 25.6392 42.9364L 25.7695 42.7017C 25.8441 42.5673 25.9502 42.2552 25.9326 41.9464C 25.9195 41.717 25.8471 41.4716 25.5036 41.2138C 23.497 39.7076 23.5089 36.8631 24.4376 34.9618C 25.5051 32.7764 27.9037 31.2193 31.2621 31.7235C 35.0653 32.2944 37.3541 31.4376 37.7606 31.1936L 37.8491 31.1404L 37.9429 31.0975C 40.4712 29.9407 45.3519 25.7544 44.098 18.4046C 43.3163 13.8219 40.1049 10.1555 35.9941 7.58409C 31.8748 5.00731 27.1257 3.7104 23.78 3.7104L 23.7381 3.7104L 23.6962 3.70849C 18.6862 3.48058 7.43045 6.45129 3.96561 20.7881Z"/>
<path id="path1_fill" fill-rule="evenodd" d="M 14.7771 3.69727C 14.7771 5.73926 13.1231 7.39453 11.0829 7.39453C 9.04257 7.39453 7.38861 5.73926 7.38861 3.69727C 7.38861 1.65527 9.04257 0 11.0829 0C 13.1231 0 14.7771 1.65527 14.7771 3.69727ZM 22.1653 7.39453C 24.2056 7.39453 25.8596 5.73926 25.8596 3.69727C 25.8596 1.65527 24.2056 0 22.1653 0C 20.1251 0 18.4711 1.65527 18.4711 3.69727C 18.4711 5.73926 20.1251 7.39453 22.1653 7.39453ZM 29.5541 14.7891C 31.5944 14.7891 33.2483 13.1338 33.2483 11.0918C 33.2483 9.0498 31.5944 7.39453 29.5541 7.39453C 27.5138 7.39453 25.8598 9.0498 25.8598 11.0918C 25.8598 13.1338 27.5138 14.7891 29.5541 14.7891ZM 3.69424 14.7891C 5.73453 14.7891 7.38849 13.1338 7.38849 11.0918C 7.38849 9.0498 5.73453 7.39453 3.69424 7.39453C 1.65396 7.39453 0 9.0498 0 11.0918C 0 13.1338 1.65396 14.7891 3.69424 14.7891Z"/>
</defs>
</svg>
