<svg width="20" height="26" viewBox="0 0 20 26" version="1.1" xmlns="http://www.w3.org/2000/svg" xmlns:xlink="http://www.w3.org/1999/xlink">
<title>romb</title>
<desc>Created using Figma</desc>
<g id="Canvas" transform="translate(-2852 -14719)">
<g id="romb">
<use xlink:href="#path0_fill" transform="translate(2852 14719)" fill="#E77A12"/>
</g>
</g>
<defs>
<path id="path0_fill" d="M 10 0L 20 13L 10 26L 0 13L 10 0Z"/>
</defs>
</svg>
