<svg width="48" height="48" viewBox="0 0 48 48" version="1.1" xmlns="http://www.w3.org/2000/svg" xmlns:xlink="http://www.w3.org/1999/xlink">
<title>clock1</title>
<desc>Created using Figma</desc>
<g id="Canvas" transform="translate(409 -11788)">
<g id="clock1">
<g id="clock1">
<use xlink:href="#path0_fill" transform="translate(-409 11788)" fill="#E77A12"/>
</g>
</g>
</g>
<defs>
<path id="path0_fill" fill-rule="evenodd" d="M 24 48C 10.7452 48 0 37.2548 0 24C 0 10.7452 10.7452 0 24 0C 37.2548 0 48 10.7452 48 24C 48 37.2548 37.2548 48 24 48ZM 24 4C 12.9543 4 4 12.9543 4 24C 4 35.0457 12.9543 44 24 44C 35.0457 44 44 35.0457 44 24C 44 12.9543 35.0457 4 24 4ZM 28.4601 31.4L 22.6001 25.522C 22.187 25.1161 21.9685 24.5522 22.0001 23.974L 22.0001 14C 22.0001 12.8954 22.8955 12 24.0001 12C 25.1047 12 26.0001 12.8954 26.0001 14L 26.0001 23.062L 31.4001 28.462C 32.2114 29.2739 32.2109 30.5897 31.3991 31.401C 30.5872 32.2123 29.2714 32.2119 28.4601 31.4Z"/>
</defs>
</svg>
