<svg width="48" height="48" viewBox="0 0 48 48" version="1.1" xmlns="http://www.w3.org/2000/svg" xmlns:xlink="http://www.w3.org/1999/xlink">
<title>headphones</title>
<desc>Created using Figma</desc>
<g id="Canvas" transform="translate(4 -10104)">
<g id="headphones">
<use xlink:href="#path0_fill" transform="translate(-4 10104)" fill="#E77A12"/>
</g>
</g>
<defs>
<path id="path0_fill" fill-rule="evenodd" d="M 48 40C 48 44.4183 44.4183 48 40 48C 35.5817 48 32 44.4183 32 40C 32 35.5817 35.5817 32 40 32C 44.4183 32 48 35.5817 48 40ZM 40 36C 37.7908 36 36 37.7909 36 40C 36 42.2091 37.7908 44 40 44C 42.2091 44 44 42.2091 44 40C 44 37.7909 42.2091 36 40 36ZM 38 24C 38 16.268 31.74 4 24 4C 16.26 4 9.99996 16.268 9.99996 24L 9.99996 32L 5.99996 32L 5.99996 24C 5.99996 14.058 14.06 0 24 0C 33.94 0 42 14.058 42 24L 42 32L 38 32L 38 24ZM 16 40C 16 44.4183 12.4183 48 8 48C 3.58172 48 0 44.4183 0 40C 0 35.5817 3.58172 32 8 32C 12.4183 32 16 35.5817 16 40ZM 8.00004 36C 5.7909 36 4.00004 37.7909 4.00004 40C 4.00004 42.2091 5.7909 44 8.00004 44C 10.2092 44 12 42.2091 12 40C 12 37.7909 10.2092 36 8.00004 36Z"/>
</defs>
</svg>
