<svg width="24" height="24" viewBox="0 0 24 24" version="1.1" xmlns="http://www.w3.org/2000/svg" xmlns:xlink="http://www.w3.org/1999/xlink">
<title>info</title>
<desc>Created using Figma</desc>
<g id="Canvas" transform="translate(-1665 -14518)">
<g id="info">
<use xlink:href="#path0_fill" transform="matrix(1 0 0 -1 1665 14542)" fill="#E77A12"/>
</g>
</g>
<defs>
<path id="path0_fill" fill-rule="evenodd" d="M 12 24C 5.37258 24 0 18.6274 0 12C 0 5.37258 5.37258 0 12 0C 18.6274 0 24 5.37258 24 12C 24 18.6274 18.6274 24 12 24ZM 12 2C 6.47715 2 2 6.47715 2 12C 2 17.5228 6.47715 22 12 22C 17.5228 22 22 17.5228 22 12C 22 9.34784 20.9464 6.8043 19.0711 4.92893C 17.1957 3.05357 14.6522 2 12 2ZM 12 17.9999C 11.4504 17.996 11.007 17.5494 11.007 16.9999L 11.007 11.0099C 10.9955 10.6478 11.1821 10.3081 11.4939 10.1237C 11.8057 9.93924 12.1932 9.93924 12.505 10.1237C 12.8169 10.3081 13.0035 10.6478 12.992 11.0099L 12.992 16.9999C 12.9936 17.2642 12.8898 17.5182 12.7037 17.7059C 12.5175 17.8936 12.2643 17.9993 12 17.9999ZM 12 7.99965C 11.5987 8.00006 11.2366 7.75862 11.0828 7.38797C 10.9289 7.01732 11.0136 6.59048 11.2972 6.30656C 11.5808 6.02264 12.0076 5.93759 12.3784 6.09107C 12.7492 6.24455 12.991 6.60634 12.991 7.00765C 12.9899 7.55467 12.547 7.998 12 7.99965ZM 12.992 7L 12.992 7.01C 12.9919 7.00833 12.9919 7.00667 12.992 7.005C 12.9921 7.00333 12.992 7 12.992 7Z"/>
</defs>
</svg>
