<svg width="48" height="48" viewBox="0 0 48 48" version="1.1" xmlns="http://www.w3.org/2000/svg" xmlns:xlink="http://www.w3.org/1999/xlink">
<title>sale</title>
<desc>Created using Figma</desc>
<g id="Canvas" transform="translate(-1056 -24724)">
<g id="sale">
<g id="Group">
<g id="Vector">
<use xlink:href="#path0_fill" transform="translate(1056 24724)" fill="#E77A12"/>
</g>
</g>
<g id="Group">
<g id="Group">
<g id="Vector">
<use xlink:href="#path1_fill" transform="translate(1070.77 24739)" fill="#E77A12"/>
</g>
</g>
<g id="Group">
<g id="Vector">
<use xlink:href="#path2_fill" transform="translate(1072.36 24740.4)" fill="#E77A12"/>
</g>
</g>
<g id="Group">
<g id="Vector">
<use xlink:href="#path3_fill" transform="translate(1083.45 24751.6)" fill="#E77A12"/>
</g>
</g>
</g>
</g>
</g>
<defs>
<path id="path0_fill" d="M 23.8842 4.2L 26.8556 6.6C 28.2423 7.8 30.0252 8.4 31.808 8.4C 32.0061 8.4 32.0061 8.4 32.2042 8.4L 36.1661 8L 37.1566 11.2C 37.7509 13.2 38.9394 15 40.7223 16L 43.4956 18L 42.3071 21C 41.5147 23 41.5147 25.2 42.3071 27.2L 43.4956 30.2L 40.5242 32C 38.7413 33 37.5528 34.8 36.9585 36.8L 36.1661 40L 32.4023 39.8C 32.2042 39.8 32.2042 39.8 32.0061 39.8C 30.2232 39.8 28.4404 40.4 27.0537 41.6L 23.8842 43.8L 20.9128 41.4C 19.5261 40.2 17.7432 39.6 15.9604 39.6C 15.7623 39.6 15.7623 39.6 15.5642 39.6L 11.6023 40L 10.6118 36.8C 10.0175 34.8 8.82895 33 7.0461 32L 4.27276 30L 5.46133 27C 6.25372 25 6.25372 22.8 5.46133 20.8L 4.27276 18L 7.24419 16.2C 9.02705 15.2 10.2156 13.4 10.8099 11.4L 11.6023 8L 15.3661 8.2C 15.5642 8.2 15.5642 8.2 15.7623 8.2C 17.5452 8.2 19.328 7.6 20.7147 6.4L 23.8842 4.2ZM 23.8842 0C 23.0918 0 22.1013 0.2 21.309 0.8L 18.3375 3.2C 17.7432 3.8 16.7528 4 15.9604 4L 15.7623 4L 11.8004 3.8L 11.6023 3.8C 9.81943 3.8 8.23467 5 7.64038 6.8L 6.848 10.2C 6.45181 11.2 5.85752 12 5.06514 12.6L 2.09371 14.4C 0.310855 15.4 -0.283431 17.6 0.310855 19.6L 1.49943 22.6C 1.89562 23.6 1.89562 24.8 1.49943 25.8L 0.310855 28.8C -0.481526 30.6 0.310855 32.8 1.89562 34L 4.86705 35.8C 5.65943 36.4 6.45181 37.2 6.64991 38.2L 7.64038 41.4C 8.23467 43.2 9.81943 44.4 11.6023 44.4L 11.8004 44.4L 15.7623 44L 15.9604 44C 16.9509 44 17.7432 44.4 18.5356 44.8L 21.5071 47.2C 22.2994 47.8 23.0918 48 24.0823 48C 25.0728 48 25.8652 47.8 26.6575 47.2L 29.629 44.8C 30.4213 44.2 31.2137 44 32.2042 44L 32.4023 44L 36.1661 44.2L 36.3642 44.2C 38.1471 44.2 39.7318 43 40.3261 41.2L 41.3166 38C 41.5147 37 42.3071 36.2 43.0994 35.6L 46.0709 33.8C 47.8537 32.8 48.448 30.6 47.6556 28.6L 46.4671 25.6C 46.0709 24.6 46.0709 23.4 46.4671 22.4L 47.6556 19.4C 48.448 17.6 47.6556 15.4 46.0709 14.2L 43.0994 12.4C 42.3071 11.8 41.5147 11 41.3166 10L 40.3261 6.8C 39.7318 5 38.1471 3.8 36.3642 3.8L 36.1661 3.8L 32.0061 4L 31.808 4C 30.8175 4 30.0252 3.6 29.2328 3.2L 26.2613 0.8C 25.6671 0.2 24.6766 0 23.8842 0Z"/>
<path id="path1_fill" d="M 16.0457 0C 15.4514 0 15.0552 0.2 14.6591 0.6L 0.594286 14.8C -0.198096 15.6 -0.198096 16.8 0.594286 17.6C 0.990476 18 1.58476 18.2 1.98095 18.2C 2.37714 18.2 2.97143 18 3.36762 17.6L 17.4324 3.4C 18.2248 2.6 18.2248 1.4 17.4324 0.6C 17.0362 0.2 16.64 0 16.0457 0Z"/>
<path id="path2_fill" d="M 1.98095 -3.8147e-07C 1.38667 -3.8147e-07 0.990477 0.2 0.594286 0.6C -0.198095 1.4 -0.198095 2.6 0.594286 3.4C 0.990477 3.8 1.58476 4 1.98095 4C 2.37714 4 2.97143 3.8 3.36762 3.4C 4.16 2.6 4.16 1.4 3.36762 0.6C 2.97143 0.2 2.37714 -3.8147e-07 1.98095 -3.8147e-07Z"/>
<path id="path3_fill" d="M 1.98095 3.8147e-07C 1.38667 3.8147e-07 0.990477 0.200001 0.594287 0.600001C -0.198095 1.4 -0.198095 2.6 0.594287 3.4C 0.990477 3.8 1.58476 4 1.98095 4C 2.37714 4 2.97143 3.8 3.36762 3.4C 4.16 2.6 4.16 1.4 3.36762 0.600001C 2.97143 0.200001 2.57524 3.8147e-07 1.98095 3.8147e-07Z"/>
</defs>
</svg>
