<svg width="30" height="30" viewBox="0 0 30 30" version="1.1" xmlns="http://www.w3.org/2000/svg" xmlns:xlink="http://www.w3.org/1999/xlink">
<title>Group</title>
<desc>Created using Figma</desc>
<g id="Canvas" transform="translate(375 -6278)">
<g id="Group">
<g id="Ellipse 4">
<use xlink:href="#path0_fill" transform="translate(-375 6278)" fill="#FFFFFF"/>
<mask id="mask0_outline_ins">
<use xlink:href="#path0_fill" fill="white" transform="translate(-375 6278)"/>
</mask>
<g mask="url(#mask0_outline_ins)">
<use xlink:href="#path1_stroke_2x" transform="translate(-375 6278)" fill="#E77A12" fill-opacity="0.2"/>
</g>
</g>
<g id="Group">
<g id="Vector">
<use xlink:href="#path2_fill" transform="translate(-364.5 6292.15)" fill="#E77A12"/>
</g>
<g id="Group">
<g id="Vector">
<use xlink:href="#path3_fill" transform="translate(-364.294 6283.25)" fill="#E77A12"/>
</g>
<g id="Vector">
<use xlink:href="#path4_fill" transform="translate(-364.5 6289.66)" fill="#E77A12"/>
</g>
</g>
<g id="Vector">
<use xlink:href="#path5_fill" transform="translate(-364.5 6285.63)" fill="#FFAA00"/>
</g>
</g>
</g>
</g>
<defs>
<path id="path0_fill" d="M 30 15C 30 23.2843 23.2843 30 15 30C 6.71573 30 0 23.2843 0 15C 0 6.71573 6.71573 0 15 0C 23.2843 0 30 6.71573 30 15Z"/>
<path id="path1_stroke_2x" d="M 29 15C 29 22.732 22.732 29 15 29L 15 31C 23.8366 31 31 23.8366 31 15L 29 15ZM 15 29C 7.26801 29 1 22.732 1 15L -1 15C -1 23.8366 6.16344 31 15 31L 15 29ZM 1 15C 1 7.26801 7.26801 1 15 1L 15 -1C 6.16344 -1 -1 6.16344 -1 15L 1 15ZM 15 1C 22.732 1 29 7.26801 29 15L 31 15C 31 6.16344 23.8366 -1 15 -1L 15 1Z"/>
<path id="path2_fill" fill-rule="evenodd" d="M 9.52195 2.8801C 9.52195 2.11599 9.52195 1.23433 9.52195 0.49961C 9.52195 0.293889 9.49256 0.146942 9.43378 -1.79375e-06C 9.28684 0.41144 8.96356 0.793494 8.61089 1.0286C 8.61089 1.0286 8.31701 1.20494 7.87618 1.46943C 5.64263 2.76254 2.29232 4.67281 1.11677 5.37814C 0.146942 5.93653 1.79375e-06 6.5243 1.79375e-06 6.93574C 1.79375e-06 8.22884 1.79375e-06 8.55212 1.79375e-06 9.84522C 0.2645 9.69828 7.17085 5.70141 8.61089 4.87853C 9.49255 4.34953 9.52195 3.87931 9.52195 3.49725C 9.52195 3.46787 9.52195 3.43848 9.52195 3.40909C 9.52195 3.23276 9.52195 3.05643 9.52195 2.8801Z"/>
<path id="path3_fill" fill-rule="evenodd" d="M 0.734719 3.17398C 1.11677 3.43848 3.3797 4.76097 3.3797 4.79036C 3.3797 2.3511 3.3797 1.79375e-06 3.3797 1.79375e-06C 2.05721 0.793497 1.52821 1.0286 0.558385 1.70454C 0.293886 1.88088 0.0587783 2.0866 8.96873e-07 2.20416C 0.117556 2.52743 0.352666 2.82132 0.734719 3.17398Z"/>
<path id="path4_fill" fill-rule="evenodd" d="M 0.881664 1.05799C 0.49961 0.793495 0.117557 0.470218 1.79375e-06 -1.79375e-06C 1.79375e-06 2.73315 1.79375e-06 6.70063 1.79375e-06 6.70063C 1.79375e-06 6.70063 1.88088 5.67202 2.85071 4.99608C 3.35032 4.6728 3.58542 4.11442 3.61481 3.52664C 3.61481 3.52664 3.61481 3.3797 3.61481 2.61559C 3.55603 2.5862 1.058 1.14616 0.881664 1.05799Z"/>
<path id="path5_fill" fill-rule="evenodd" d="M 0.911049 4.87852C 0.911049 4.87852 0.911051 4.87853 0.94044 4.90791C 0.94044 4.90791 0.969826 4.90792 0.969826 4.9373C 0.969826 4.9373 2.11599 5.61325 3.58542 6.43613C 4.64342 7.05329 5.84836 7.75863 6.90635 8.37579C 7.2884 8.14068 8.19945 7.64107 8.61089 7.34718C 8.99295 7.0533 9.16928 6.7594 9.31623 6.37735C 9.22806 6.20102 9.08112 5.81896 8.58151 5.49569C 8.37579 5.37813 5.67202 3.82054 3.58542 2.6156C 2.49804 1.99844 0.852272 1.02861 0.911049 1.02861C 0.558385 0.793499 0.264497 0.411446 0.0881644 3.58749e-06C 0.0293869 0.146947 1.79375e-06 0.323276 1.79375e-06 0.528997C 1.79375e-06 0.528997 1.79375e-06 0.646552 1.79375e-06 0.822884C 1.79375e-06 1.08738 1.79375e-06 1.3225 1.79375e-06 1.46944C 1.79375e-06 2.02783 1.79375e-06 2.73315 1.79375e-06 3.35032C 1.79375e-06 3.96748 0.44083 4.55525 0.911049 4.87852Z"/>
</defs>
</svg>
