<svg width="48" height="48" viewBox="0 0 48 48" version="1.1" xmlns="http://www.w3.org/2000/svg" xmlns:xlink="http://www.w3.org/1999/xlink">
<title>stats1</title>
<desc>Created using Figma</desc>
<g id="Canvas" transform="translate(484 -24750)">
<g id="stats1">
<g id="stats1">
<use xlink:href="#path0_fill" transform="translate(-484 24750)" fill="#E77A12"/>
</g>
</g>
</g>
<defs>
<path id="path0_fill" fill-rule="evenodd" d="M 46 48L 2 48C 0.89543 48 0 47.1046 0 46L 0 2C 0 0.89543 0.89543 0 2 0C 3.10457 0 4 0.89543 4 2L 4 44L 46 44C 47.1046 44 48 44.8954 48 46C 48 47.1046 47.1046 48 46 48ZM 36 40C 34.8954 40 34 39.1046 34 38L 34 16C 34 14.8954 34.8954 14 36 14C 37.1046 14 38 14.8954 38 16L 38 38C 38 39.1046 37.1046 40 36 40ZM 28 40C 26.8954 40 26 39.1046 26 38L 26 24C 26 22.8954 26.8954 22 28 22C 29.1046 22 30 22.8954 30 24L 30 38C 30 39.1046 29.1046 40 28 40ZM 20 40C 18.8954 40 18 39.1046 18 38L 18 6C 18 4.89543 18.8954 4 20 4C 21.1046 4 22 4.89543 22 6L 22 38C 22 39.1046 21.1046 40 20 40ZM 12 40C 10.8954 40 10 39.1046 10 38L 10 18C 10 16.8954 10.8954 16 12 16C 13.1046 16 14 16.8954 14 18L 14 38C 14 39.1046 13.1046 40 12 40Z"/>
</defs>
</svg>
