<svg width="6" height="10" viewBox="0 0 6 10" version="1.1" xmlns="http://www.w3.org/2000/svg" xmlns:xlink="http://www.w3.org/1999/xlink">
<title>arrow_icon</title>
<desc>Created using Figma</desc>
<g id="Canvas" transform="translate(-8866 -976)">
<rect x="8866" y="976" width="6" height="10" fill="#E5E5E5"/>
<clipPath id="clip-0" clip-rule="evenodd">
<path d="M 8607 -537L 8982 -537L 8982 1271L 8607 1271L 8607 -537Z" fill="#FFFFFF"/>
</clipPath>
<g id="1.0 Blog" clip-path="url(#clip-0)">
<path d="M 8607 -537L 8982 -537L 8982 1271L 8607 1271L 8607 -537Z" fill="#FFFFFF"/>
<g id="footer">
<g id="full version">
<g id="Rectangle 9">
<use xlink:href="#path0_fill" transform="translate(8607 956)" fill="#FAFAFA"/>
</g>
<g id="Group">
<g id="arrow_icon">
<use xlink:href="#path1_fill" transform="translate(8866 976)" fill="#404040"/>
</g>
</g>
</g>
</g>
</g>
</g>
<defs>
<path id="path0_fill" d="M 0 0L 375 0L 375 50L 0 50L 0 0Z"/>
<path id="path1_fill" d="M 1.23553e-07 8.81667L 3.7085 5L 1.23553e-07 1.175L 1.1417 0L 6 5L 1.1417 10L 1.23553e-07 8.81667Z"/>
</defs>
</svg>
